Summary Statistics
…
count: false
 
## Distribution of continuous variable
.panel1-histo-facets-auto[

```r
*BRFSS_2015_small
```
]
 
.panel2-histo-facets-auto[

```
# A tibble: 161,639 × 4
   sex    genderIdentity  heavyDrink drinksWeek
   <fct>  <fct>           <fct>           <dbl>
 1 female not transgender no               2.33
 2 male   not transgender no               0.47
 3 female not transgender no               0   
 4 female not transgender no               3   
 5 female not transgender no               0   
 6 male   not transgender no               0   
 7 female not transgender no               2.33
 8 female not transgender no               0   
 9 male   not transgender no               0   
10 female not transgender no               0   
# … with 161,629 more rows
```
…
