You must be plotting something
…
<img src="./yoda-mouth-open.jpg" width="600" style="display: block; margin: auto;" />

---

## Examine the full data set

* Get to know the data by running the code chunk (chunk2) that contains the name of the data:

```r
starwars
```

```
# A tibble: 87 × 14
   name    height  mass hair_color  skin_color eye_color birth_year sex   gender
   <chr>    <int> <dbl> <chr>       <chr>      <chr>          <dbl> <chr> <chr> 
 1 Luke S…    172    77 blond       fair       blue            19   male  mascu…
 2 C-3PO      167    75 <NA>        gold       yellow         112   none  mascu…
 3 R2-D2       96    32 <NA>        white, bl… red             33   none  mascu…
 4 Darth …    202   136 none        white      yellow          41.9 male  mascu…
 5 Leia O…    150    49 brown       light      brown           19   fema… femin…
 6 Owen L…    178   120 brown, grey light      blue            52   male  mascu…
 7 Beru W…    165    75 brown       light      blue            47   fema… femin…
 8 R5-D4       97    32 <NA>        white, red red             NA   none  mascu…
 9 Biggs …    183    84 black       light      brown           24   male  mascu…
10 Obi-Wa…    182    77 auburn, wh… fair       blue-gray       57   male  mascu…
# … with 77 more rows, and 5 more variables: homeworld <chr>, species <chr>,
#   films <list>, vehicles <list>, starships <list>
```
…
count: false
 
## Basic bar chart
.panel1-my_bar-auto[

```r
*starwarsRec
```
]
 
.panel2-my_bar-auto[

```
# A tibble: 87 × 11
   name    height  mass hair_color  skin_color eye_color birth_year sex   gender
   <fct>    <int> <dbl> <fct>       <fct>      <fct>          <dbl> <fct> <fct> 
 1 Luke S…    172    77 blond       fair       light           19   male  mascu…
 2 C-3PO      167    75 <NA>        gold       bright         112   none  mascu…
 3 R2-D2       96    32 <NA>        white, bl… bright          33   none  mascu…
 4 Darth …    202   136 none        white      bright          41.9 male  mascu…
 5 Leia O…    150    49 brown       light      dark            19   fema… femin…
 6 Owen L…    178   120 brown, grey light      light           52   male  mascu…
 7 Beru W…    165    75 brown       light      light           47   fema… femin…
 8 R5-D4       97    32 <NA>        white, red bright          NA   none  mascu…
 9 Biggs …    183    84 black       light      dark            24   male  mascu…
10 Obi-Wa…    182    77 auburn, wh… fair       light           57   male  mascu…
# … with 77 more rows, and 2 more variables: homeworld <fct>, species <fct>
```
…
count: false
 
## Fancy bar chart
.panel1-my_bar_fancy-auto[

```r
*starwarsRec
```
]
 
.panel2-my_bar_fancy-auto[

```
# A tibble: 87 × 11
   name    height  mass hair_color  skin_color eye_color birth_year sex   gender
   <fct>    <int> <dbl> <fct>       <fct>      <fct>          <dbl> <fct> <fct> 
 1 Luke S…    172    77 blond       fair       light           19   male  mascu…
 2 C-3PO      167    75 <NA>        gold       bright         112   none  mascu…
 3 R2-D2       96    32 <NA>        white, bl… bright          33   none  mascu…
 4 Darth …    202   136 none        white      bright          41.9 male  mascu…
 5 Leia O…    150    49 brown       light      dark            19   fema… femin…
 6 Owen L…    178   120 brown, grey light      light           52   male  mascu…
 7 Beru W…    165    75 brown       light      light           47   fema… femin…
 8 R5-D4       97    32 <NA>        white, red bright          NA   none  mascu…
 9 Biggs …    183    84 black       light      dark            24   male  mascu…
10 Obi-Wa…    182    77 auburn, wh… fair       light           57   male  mascu…
# … with 77 more rows, and 2 more variables: homeworld <fct>, species <fct>
```
…
## Fancy bar chart
.panel1-my_bar_fancy-auto[

```r
starwarsRec %>%
* drop_na(gender)
```
]
 
.panel2-my_bar_fancy-auto[

```
# A tibble: 83 × 11
   name    height  mass hair_color  skin_color eye_color birth_year sex   gender
   <fct>    <int> <dbl> <fct>       <fct>      <fct>          <dbl> <fct> <fct> 
 1 Luke S…    172    77 blond       fair       light           19   male  mascu…
 2 C-3PO      167    75 <NA>        gold       bright         112   none  mascu…
 3 R2-D2       96    32 <NA>        white, bl… bright          33   none  mascu…
 4 Darth …    202   136 none        white      bright          41.9 male  mascu…
 5 Leia O…    150    49 brown       light      dark            19   fema… femin…
 6 Owen L…    178   120 brown, grey light      light           52   male  mascu…
 7 Beru W…    165    75 brown       light      light           47   fema… femin…
 8 R5-D4       97    32 <NA>        white, red bright          NA   none  mascu…
 9 Biggs …    183    84 black       light      dark            24   male  mascu…
10 Obi-Wa…    182    77 auburn, wh… fair       light           57   male  mascu…
# … with 73 more rows, and 2 more variables: homeworld <fct>, species <fct>
```
…
count: false
 
## Figure 1 code
.panel1-my_bar_fancy_fig1a-auto[

```r
*starwarsRec
```
]
 
.panel2-my_bar_fancy_fig1a-auto[

```
# A tibble: 87 × 11
   name    height  mass hair_color  skin_color eye_color birth_year sex   gender
   <fct>    <int> <dbl> <fct>       <fct>      <fct>          <dbl> <fct> <fct> 
 1 Luke S…    172    77 blond       fair       light           19   male  mascu…
 2 C-3PO      167    75 <NA>        gold       bright         112   none  mascu…
 3 R2-D2       96    32 <NA>        white, bl… bright          33   none  mascu…
 4 Darth …    202   136 none        white      bright          41.9 male  mascu…
 5 Leia O…    150    49 brown       light      dark            19   fema… femin…
 6 Owen L…    178   120 brown, grey light      light           52   male  mascu…
 7 Beru W…    165    75 brown       light      light           47   fema… femin…
 8 R5-D4       97    32 <NA>        white, red bright          NA   none  mascu…
 9 Biggs …    183    84 black       light      dark            24   male  mascu…
10 Obi-Wa…    182    77 auburn, wh… fair       light           57   male  mascu…
# … with 77 more rows, and 2 more variables: homeworld <fct>, species <fct>
```
…
## Figure 1 code
.panel1-my_bar_fancy_fig1a-auto[

```r
starwarsRec %>%
* drop_na(species)
```
]
 
.panel2-my_bar_fancy_fig1a-auto[

```
# A tibble: 87 × 11
   name    height  mass hair_color  skin_color eye_color birth_year sex   gender
   <fct>    <int> <dbl> <fct>       <fct>      <fct>          <dbl> <fct> <fct> 
 1 Luke S…    172    77 blond       fair       light           19   male  mascu…
 2 C-3PO      167    75 <NA>        gold       bright         112   none  mascu…
 3 R2-D2       96    32 <NA>        white, bl… bright          33   none  mascu…
 4 Darth …    202   136 none        white      bright          41.9 male  mascu…
 5 Leia O…    150    49 brown       light      dark            19   fema… femin…
 6 Owen L…    178   120 brown, grey light      light           52   male  mascu…
 7 Beru W…    165    75 brown       light      light           47   fema… femin…
 8 R5-D4       97    32 <NA>        white, red bright          NA   none  mascu…
 9 Biggs …    183    84 black       light      dark            24   male  mascu…
10 Obi-Wa…    182    77 auburn, wh… fair       light           57   male  mascu…
# … with 77 more rows, and 2 more variables: homeworld <fct>, species <fct>
```
…
